<svg xmlns="http://www.w3.org/2000/svg" width="80.38" height="80.38" viewBox="0 0 80.38 80.38">
  <g id="arrow-down-s-line" transform="translate(0 80.38) rotate(-90)">
    <path id="Path_62" data-name="Path 62" d="M0,0H80.38V80.38H0Z" fill="none"/>
    <path id="Path_63" data-name="Path 63" d="M26.906,24.839,43.449,8.222l4.726,4.747L26.906,34.333,5.636,12.969l4.726-4.747Z" transform="translate(13.284 19.284)" fill="#5633c1"/>
  </g>
</svg>
