<svg xmlns="http://www.w3.org/2000/svg" width="145.455" height="100" viewBox="0 0 145.455 100">
  <g id="eye" transform="translate(0 -2.5)">
    <path id="Path_19" data-name="Path 19" d="M145.455,52.5s-27.273-50-72.727-50S0,52.5,0,52.5s27.273,50,72.727,50S145.455,52.5,145.455,52.5Zm-134.791,0A119.39,119.39,0,0,1,25.755,33.927c11.7-11.718,27.7-22.336,46.973-22.336s35.264,10.618,46.982,22.336A119.39,119.39,0,0,1,134.8,52.5c-.527.791-1.109,1.664-1.773,2.618a119.883,119.883,0,0,1-13.318,15.955C107.991,82.791,91.991,93.409,72.727,93.409S37.464,82.791,25.745,71.073A119.4,119.4,0,0,1,10.655,52.5Z" transform="translate(0 0)" fill="#5633c1"/>
    <path id="Path_20" data-name="Path 20" d="M36.318,13.591A22.727,22.727,0,1,0,59.045,36.318,22.727,22.727,0,0,0,36.318,13.591ZM4.5,36.318A31.818,31.818,0,1,1,36.318,68.136,31.818,31.818,0,0,1,4.5,36.318Z" transform="translate(36.409 16.182)" fill="#5633c1"/>
  </g>
</svg>
