<svg xmlns="http://www.w3.org/2000/svg" width="32" height="32" viewBox="0 0 32 32">
  <path id="facebook" d="M32,16.1A16,16,0,1,0,13.5,32V20.75H9.437V16.1H13.5v-3.55c0-4.033,2.39-6.261,6.043-6.261a24.471,24.471,0,0,1,3.582.314v3.96H21.107A2.32,2.32,0,0,0,18.5,13.077V16.1h4.435l-.708,4.651H18.5V32A16.072,16.072,0,0,0,32,16.1Z" transform="translate(0.002 0.001)" fill="#323232"/>
</svg>
