<svg xmlns="http://www.w3.org/2000/svg" width="32" height="32" viewBox="0 0 32 32">
  <path id="instagram" d="M16,0c-4.342,0-4.888.02-6.594.1A11.789,11.789,0,0,0,5.52.84,7.834,7.834,0,0,0,2.686,2.686,7.854,7.854,0,0,0,.84,5.52,11.72,11.72,0,0,0,.1,9.4C.02,11.11,0,11.654,0,16S.02,20.89.1,22.6A11.787,11.787,0,0,0,.84,26.48a8.191,8.191,0,0,0,4.678,4.68A11.746,11.746,0,0,0,9.4,31.9c1.708.076,2.252.1,6.6.1s4.888-.02,6.6-.1a11.811,11.811,0,0,0,3.886-.744,8.191,8.191,0,0,0,4.678-4.68A11.839,11.839,0,0,0,31.9,22.6c.076-1.706.1-2.25.1-6.6s-.02-4.89-.1-6.6A11.826,11.826,0,0,0,31.16,5.52a7.852,7.852,0,0,0-1.846-2.834A7.822,7.822,0,0,0,26.48.84,11.771,11.771,0,0,0,22.594.1C20.886.02,20.344,0,16,0H16ZM14.566,2.884H16c4.272,0,4.778.014,6.464.092a8.867,8.867,0,0,1,2.972.55,4.964,4.964,0,0,1,1.84,1.2,4.943,4.943,0,0,1,1.2,1.84,8.788,8.788,0,0,1,.55,2.97c.078,1.686.094,2.192.094,6.462s-.016,4.778-.094,6.464a8.852,8.852,0,0,1-.55,2.97,5.3,5.3,0,0,1-3.038,3.034,8.8,8.8,0,0,1-2.97.552c-1.686.076-2.192.094-6.464.094s-4.78-.018-6.466-.094a8.838,8.838,0,0,1-2.97-.552,4.956,4.956,0,0,1-1.84-1.2,4.96,4.96,0,0,1-1.2-1.84,8.84,8.84,0,0,1-.55-2.97c-.076-1.686-.092-2.192-.092-6.466s.016-4.776.092-6.462a8.853,8.853,0,0,1,.552-2.972,4.964,4.964,0,0,1,1.2-1.84,4.943,4.943,0,0,1,1.84-1.2,8.838,8.838,0,0,1,2.97-.552c1.476-.068,2.048-.088,5.03-.09v0ZM24.542,5.54a1.92,1.92,0,1,0,1.92,1.92,1.92,1.92,0,0,0-1.92-1.92ZM16,7.784A8.218,8.218,0,1,0,24.22,16,8.217,8.217,0,0,0,16,7.784Zm0,2.882A5.334,5.334,0,1,1,10.668,16,5.334,5.334,0,0,1,16,10.666Z" fill="#323232"/>
</svg>
