<svg xmlns="http://www.w3.org/2000/svg" width="152" height="142.5" viewBox="0 0 152 142.5">
  <path id="shop" d="M28.215,4.325A9.5,9.5,0,0,1,35.435,1h81.13a9.5,9.5,0,0,1,7.22,3.325L148.57,33.243A14.25,14.25,0,0,1,152,42.515v2.423a22.562,22.562,0,0,1-40.375,13.851,22.566,22.566,0,0,1-35.625,0,22.566,22.566,0,0,1-35.625,0A22.562,22.562,0,0,1,0,44.938V42.515a14.25,14.25,0,0,1,3.429-9.272l24.8-28.928Zm16.91,40.612a13.062,13.062,0,1,0,26.125,0,4.75,4.75,0,0,1,9.5,0,13.063,13.063,0,0,0,26.125,0,4.75,4.75,0,0,1,9.5,0,13.063,13.063,0,0,0,26.125,0V42.515a4.75,4.75,0,0,0-1.14-3.088L116.565,10.5H35.435L10.64,39.427A4.75,4.75,0,0,0,9.5,42.515v2.423a13.063,13.063,0,0,0,26.125,0,4.75,4.75,0,0,1,9.5,0ZM14.25,72.25A4.75,4.75,0,0,1,19,77v57h9.5V86.5A9.5,9.5,0,0,1,38,77H66.5A9.5,9.5,0,0,1,76,86.5V134h57V77a4.75,4.75,0,0,1,9.5,0v57h4.75a4.75,4.75,0,0,1,0,9.5H4.75a4.75,4.75,0,1,1,0-9.5H9.5V77a4.75,4.75,0,0,1,4.75-4.75ZM38,134H66.5V86.5H38ZM85.5,86.5A9.5,9.5,0,0,1,95,77h19a9.5,9.5,0,0,1,9.5,9.5V115a9.5,9.5,0,0,1-9.5,9.5H95a9.5,9.5,0,0,1-9.5-9.5Zm28.5,0H95V115h19Z" transform="translate(0 -1)" fill="#fff"/>
</svg>
