<svg id="camera-fill" xmlns="http://www.w3.org/2000/svg" width="35" height="35" viewBox="0 0 35 35">
  <path id="Path_40" data-name="Path 40" d="M0,0H35V35H0Z" fill="none"/>
  <path id="Path_41" data-name="Path 41" d="M11.742,3h8.35l2.783,2.694h5.567a1.37,1.37,0,0,1,1.392,1.347V25.9a1.37,1.37,0,0,1-1.392,1.347H3.392A1.37,1.37,0,0,1,2,25.9V7.042A1.37,1.37,0,0,1,3.392,5.694H8.958Zm4.175,21.556a8.22,8.22,0,0,0,8.35-8.083,8.22,8.22,0,0,0-8.35-8.083,8.22,8.22,0,0,0-8.35,8.083A8.22,8.22,0,0,0,15.917,24.556Zm0-2.694a5.48,5.48,0,0,1-5.567-5.389,5.48,5.48,0,0,1,5.567-5.389,5.48,5.48,0,0,1,5.567,5.389A5.48,5.48,0,0,1,15.917,21.861Z" transform="translate(1.583 2.375)" fill="#323232"/>
</svg>
