<svg xmlns="http://www.w3.org/2000/svg" width="71.45" height="71.448" viewBox="0 0 71.45 71.448">
  <g id="handshake_1_" data-name="handshake (1)" transform="translate(0.001 -0.008)">
    <path id="Path_32" data-name="Path 32" d="M35.724,23.242A11.619,11.619,0,0,0,40.146.879a1.047,1.047,0,0,0-.8,1.936A9.53,9.53,0,1,1,35.724,2.1a1.047,1.047,0,0,0,0-2.093,11.617,11.617,0,0,0,0,23.234ZM32.007,12.013a1.047,1.047,0,1,0-1.48,1.48L32.633,15.6a2.026,2.026,0,0,0,2.861,0l5.428-5.428a1.047,1.047,0,0,0-1.48-1.48L34.063,14.07Zm39.136,20.8a1.047,1.047,0,0,0-1.48,0l-3.955,3.951L49.5,20.236,67.965,1.8A1.047,1.047,0,0,0,66.486.314L43.811,22.959a5.177,5.177,0,0,0-1.523,4.021h-1.4a7.434,7.434,0,0,0-5.532,2.471l-.2.226a15.074,15.074,0,0,0-6.205-1.585,5.247,5.247,0,0,0-1.378-5.138L4.672.4A1.047,1.047,0,1,0,3.2,1.887L22.758,21.151,8.66,35.531A1.047,1.047,0,0,0,10.155,37L24.249,22.619l1.856,1.829a3.133,3.133,0,0,1,.023,4.457L14.22,40.8a3.146,3.146,0,0,1-4.441,0L1.785,32.817A1.047,1.047,0,0,0,.306,34.3L8.3,42.283a5.244,5.244,0,0,0,5.14,1.327,15.108,15.108,0,0,0,.229,2.118,4.514,4.514,0,0,0-1.309.911l-2.3,2.3a4.53,4.53,0,0,0,3.625,7.715A4.529,4.529,0,0,0,18.2,61.6q.209,0,.418-.02a4.53,4.53,0,0,0,4.934,4.929,4.537,4.537,0,0,0,7.722,3.624l1.512-1.51,1.512,1.51a4.535,4.535,0,0,0,7.722-3.624,4.53,4.53,0,0,0,4.934-4.929A4.53,4.53,0,0,0,51.89,56.65a4.53,4.53,0,0,0,3.625-7.715l-1.267-1.266a15.37,15.37,0,0,0,3.717-4.07,5.25,5.25,0,0,0,5.184-1.316L71.142,34.3a1.046,1.046,0,0,0,0-1.48ZM15,53.864a2.447,2.447,0,0,1-3.454,0,2.436,2.436,0,0,1,0-3.448l2.3-2.3a2.44,2.44,0,1,1,3.454,3.448Zm1.479,4.929a2.436,2.436,0,0,1,0-3.448l2.3-2.3a2.448,2.448,0,0,1,3.455,0,2.436,2.436,0,0,1,0,3.448l-2.3,2.3A2.448,2.448,0,0,1,16.476,58.792Zm4.934,4.929a2.436,2.436,0,0,1,0-3.448l2.3-2.3a2.44,2.44,0,1,1,3.454,3.448l-2.3,2.3A2.447,2.447,0,0,1,21.409,63.721ZM32.1,66.355l-2.3,2.3a2.448,2.448,0,0,1-3.455,0h0a2.436,2.436,0,0,1,0-3.448l2.3-2.3A2.44,2.44,0,1,1,32.1,66.355ZM54.751,52.139a2.421,2.421,0,0,1-.715,1.724,2.447,2.447,0,0,1-3.454,0l-7.5-7.492a1.047,1.047,0,0,0-1.48,1.481l7.5,7.492a2.436,2.436,0,0,1,0,3.448,2.447,2.447,0,0,1-3.454,0h0l-7.5-7.492a1.047,1.047,0,1,0-1.48,1.481l7.5,7.492a2.436,2.436,0,0,1,0,3.448,2.447,2.447,0,0,1-3.454,0l-7.5-7.492a1.047,1.047,0,1,0-1.48,1.481l7.5,7.492a2.436,2.436,0,0,1,0,3.448,2.448,2.448,0,0,1-3.454,0l-1.586-1.585a4.53,4.53,0,0,0-4.244-6.945c.013-.138.02-.278.02-.419a4.53,4.53,0,0,0-4.953-4.51c.013-.138.02-.278.02-.419a4.53,4.53,0,0,0-4.954-4.51c.013-.138.02-.278.02-.419a4.528,4.528,0,0,0-4.38-4.526,12.945,12.945,0,0,1-.184-2.882c.054-.05.108-.1.161-.153l11.909-11.9q.094-.094.183-.192A12.977,12.977,0,0,1,33.7,31.3l-6.618,7.389a3.248,3.248,0,0,0,.124,4.465,5.949,5.949,0,0,0,8.4,0l4.845-4.84a1.048,1.048,0,0,1,1.479,0l9.961,9.951,2.149,2.147a2.424,2.424,0,0,1,.714,1.724ZM55.088,44a13.385,13.385,0,0,1-2.335,2.176l-9.347-9.338a3.144,3.144,0,0,0-4.438,0l-4.845,4.84a3.853,3.853,0,0,1-5.439,0,1.155,1.155,0,0,1-.044-1.587l8.277-9.242a5.339,5.339,0,0,1,3.972-1.774h1.978a5.245,5.245,0,0,0,.943,1.282L55.749,42.283c.116.116.237.224.361.327A13.351,13.351,0,0,1,55.088,44Zm6.582-3.2a3.146,3.146,0,0,1-4.441,0L45.29,28.875a3.133,3.133,0,0,1,0-4.434l2.729-2.725L64.227,38.248Z" fill="#5633c1"/>
  </g>
</svg>
