<svg id="shopping-cart-line" xmlns="http://www.w3.org/2000/svg" width="55.664" height="55.664" viewBox="0 0 55.664 55.664">
  <path id="Path_44" data-name="Path 44" d="M0,0H55.664V55.664H0Z" fill="none"/>
  <path id="Path_45" data-name="Path 45" d="M6.869,35.929V6.847H2V2H9.3a2.429,2.429,0,0,1,2.435,2.423V33.505H42.022l4.869-19.388H16.608V9.27h33.4a2.426,2.426,0,0,1,2.362,3.012L46.288,36.518a2.433,2.433,0,0,1-2.362,1.835H9.3A2.429,2.429,0,0,1,6.869,35.929Zm4.869,16.964a4.847,4.847,0,1,1,4.869-4.847A4.858,4.858,0,0,1,11.739,52.893Zm29.217,0a4.847,4.847,0,1,1,4.869-4.847A4.858,4.858,0,0,1,40.956,52.893Z" transform="translate(1.181 1.181)" fill="#323232"/>
</svg>
