<svg xmlns="http://www.w3.org/2000/svg" width="77.415" height="100" viewBox="0 0 77.415 100">
  <g id="file-earmark-text" transform="translate(-2)">
    <path id="Path_16" data-name="Path 16" d="M8.225,7a3.225,3.225,0,1,0,0,6.451H40.48A3.225,3.225,0,1,0,40.48,7ZM5,23.127A3.225,3.225,0,0,1,8.225,19.9H40.48a3.225,3.225,0,1,1,0,6.451H8.225A3.225,3.225,0,0,1,5,23.127Zm0,12.9A3.225,3.225,0,0,1,8.225,32.8h12.9a3.225,3.225,0,1,1,0,6.451H8.225A3.225,3.225,0,0,1,5,36.029Z" transform="translate(16.354 36.11)" fill="#5633c1"/>
    <path id="Path_17" data-name="Path 17" d="M50.384,0H14.9A12.706,12.706,0,0,0,2,12.5v75A12.706,12.706,0,0,0,14.9,100h51.61a12.706,12.706,0,0,0,12.9-12.5V28.125Zm0,6.25v12.5a9.529,9.529,0,0,0,9.677,9.375h12.9V87.5a6.353,6.353,0,0,1-6.451,6.25H14.9A6.353,6.353,0,0,1,8.451,87.5v-75A6.353,6.353,0,0,1,14.9,6.25Z" transform="translate(0)" fill="#5633c1"/>
  </g>
</svg>
