<svg id="house" xmlns="http://www.w3.org/2000/svg" width="142.512" height="131.031" viewBox="0 0 142.512 131.031">
  <path id="Path_3" data-name="Path 3" d="M2,111.25V49.5h9.5v61.75A4.75,4.75,0,0,0,16.25,116h85.5a4.75,4.75,0,0,0,4.75-4.75V49.5H116v61.75a14.25,14.25,0,0,1-14.25,14.25H16.25A14.25,14.25,0,0,1,2,111.25ZM106.5,6.75V40l-19-19V6.75A4.75,4.75,0,0,1,92.25,2h9.5A4.75,4.75,0,0,1,106.5,6.75Z" transform="translate(12.256 5.531)" fill="#fff" fill-rule="evenodd"/>
  <path id="Path_4" data-name="Path 4" d="M65.039,3.989a9.5,9.5,0,0,1,13.433,0l63.146,63.137a4.756,4.756,0,0,1-6.726,6.726L71.755,10.705,8.618,73.852a4.756,4.756,0,1,1-6.726-6.726Z" transform="translate(-0.499 -1.207)" fill="#fff" fill-rule="evenodd"/>
</svg>
